…
Add it to the local repo as the origin remote: git remote add origin https://github.com/YOU/REPO.git.

Push and cement the branch tracking relationship: git push --set-upstream origin master.

Push! Now your README is an excellent welcome mat and summary of your project.

On GitHub, in Settings, turn on GitHub Pages. Visit the given URL for an even more polished report of your project. It may take a few minutes to show up/update. Record that as the URL for your repo.

#> Parsed with column specification:
#> cols(
#>   Package = col_character(),
#>   Built = col_character()
#> )
#> # A tibble: 330 x 2
#>    Package    Built
#>    <chr>      <chr>
#>  1 abind      3.5.0
#>  2 acepack    3.5.0
#>  3 assertthat 3.5.0
#>  4 backports  3.5.0
#>  5 base64enc  3.5.0
#>  6 bayesplot  3.5.0
#>  7 bbmle      3.5.0
#>  8 beanplot   3.5.0
#>  9 beeswarm   3.5.0
#> 10 BH         3.5.2
#> # … with 320 more rows
…
