…
<!-- end list -->

    #> Parsed with column specification:
    #> cols(
    #>   Package = col_character(),
    #>   Built = col_character()
    #> )
    #> # A tibble: 330 x 2
    #>    Package    Built
    #>    <chr>      <chr>
    #>  1 abind      3.5.0
    #>  2 acepack    3.5.0
    #>  3 assertthat 3.5.0
    #>  4 backports  3.5.0
    #>  5 base64enc  3.5.0
    #>  6 bayesplot  3.5.0
    #>  7 bbmle      3.5.0
    #>  8 beanplot   3.5.0
    #>  9 beeswarm   3.5.0
    #> 10 BH         3.5.2
    #> # … with 320 more rows
…
